%YAML 1.1
%TAG !u! tag:unity3d.com,2011:
--- !u!21 &2100000
Material:
  serializedVersion: 6
  m_ObjectHideFlags: 0
  m_CorrespondingSourceObject: {fileID: 0}
  m_PrefabInstance: {fileID: 0}
  m_PrefabAsset: {fileID: 0}
  m_Name: W2
  m_Shader: {fileID: 4800000, guid: 3e8dca26a5f9f433384584eca4f3cf4b, type: 3}
  m_ShaderKeywords: 
  m_LightmapFlags: 4
  m_EnableInstancingVariants: 0
  m_DoubleSidedGI: 0
  m_CustomRenderQueue: -1
  stringTagMap: {}
  disabledShaderPasses: []
  m_SavedProperties:
    serializedVersion: 3
    m_TexEnvs:
    - _BottomTex:
        m_Texture: {fileID: 2800000, guid: c2ef94ff9d11915d1100a04b44295342, type: 3}
        m_Scale: {x: 1, y: 1}
        m_Offset: {x: 0, y: 0}
    - _BumpMap:
        m_Texture: {fileID: 2800000, guid: b78f6f88331a44e42bf4c75514d90825, type: 3}
        m_Scale: {x: 1, y: 1}
        m_Offset: {x: 0, y: 0}
    - _Cube:
        m_Texture: {fileID: 8900000, guid: 2c8424c73ded6ec48b9bc625b2cf6da4, type: 3}
        m_Scale: {x: 1, y: 1}
        m_Offset: {x: 0, y: 0}
    - _FoamTex:
        m_Texture: {fileID: 2800000, guid: 0c2ab2a1c4018714989a955420ef3da3, type: 3}
        m_Scale: {x: 2, y: 5}
        m_Offset: {x: 0, y: 0}
    - _MainTex:
        m_Texture: {fileID: 2800000, guid: c2ef94ff9d11915d1100a04b44295342, type: 3}
        m_Scale: {x: 10, y: 15}
        m_Offset: {x: 0, y: 0}
    - _SpeedMask:
        m_Texture: {fileID: 2800000, guid: 8ef5b3073dc591f498ce8c0e935e68ed, type: 3}
        m_Scale: {x: 1, y: 1}
        m_Offset: {x: 0, y: 0}
    - _Tex0:
        m_Texture: {fileID: 2800000, guid: 3e3810b72e3255b4ea0ad31eeb9bed52, type: 3}
        m_Scale: {x: 1, y: 1}
        m_Offset: {x: 0, y: 0}
    m_Floats:
    - _Blend: 1
    - _Depth: 0.08928572
    - _Distortion: 0.5
    - _Exposure: 0.69
    - _FakeDepth: -0.15
    - _Glos: 0.125
    - _PhaseOffset: 0.73214287
    - _Reflection: 0.17857143
    - _Scale: 7.3482137
    - _Shininess: 1
    - _Smoothing: 1
    - _Speed: 3.0357144
    - _WaterSpeed: -1.78
    - _WaveAmp: 1
    - _WaveFreq: 33
    - _XDrift: 0.7857143
    - _ZDrift: 1.4285715
    m_Colors:
    - WaveSpeed: {r: 19, g: 9, b: -16, a: -7}
    - _BallPos: {r: 881.6951, g: 18.64749, b: 1898.566, a: 1}
    - _Color: {r: 1, g: 1, b: 1, a: 1}
    - _StonePos: {r: 36.87959, g: 36.87959, b: 36.87959, a: 1}
    - _W: {r: 0, g: -1, b: 0, a: 0}
    - _WaveSpeed: {r: -2, g: 1, b: -0.5, a: -2}
    - _xBallPos: {r: 0, g: 0, b: 0, a: 1}
--- !u!1002 &2100001
EditorExtensionImpl:
  serializedVersion: 6
